Designator	Description	Partname	Package	LT_ID	Center-X(mm)	Center-Y(mm)	Rotation

C5	Cer. Capacitor 0603, 10nF, 10%, X7R, 50V	CC0603KRX7R9BB103	SMD 0603	5630003420	65.5	45.173	270
C7	cap type	CC1206KKX7R8BB475	SMD 1206		69.904	57.25	270
C8	cap type	CC1206KKX7R8BB475	SMD 1206		80.75	57.75	270
C9	cap type	CC1206KKX7R8BB475	SMD 1206		75.077	52.25	0
C10	cap type	CC1206KKX7R8BB475	SMD 1206		76.077	55.75	0
C11	Cer. Capacitor 0603, 1uF, 10%, X7R, 16V	CC0603KRX7R7BB105		5630001560	65.077	48	0
C12	Cer.capacitor 0603, 220nF, +80/-20%, Y5V, 25V	CC0603ZRY5V8BB224	SMD 0603	5630001550	68.577	49	270
C14	cap type	GRM31CR71H225K	SMD 1206	5630000490	77.25	65	90
C15	cap type	GRM31CR71H225K	SMD 1206	5630000490	70.577	67.25	90
C16	cap type	GRM31CR71H225K	SMD 1206	5630000490	73.827	67.25	90
C17	Cer. Capacitor 0805, 10nF, 10%, X7R, 50V	CC0805KRX7R9BB103	SMD 0805	5630001540	91.077	71.5	180
C18	Cer. Capacitor 0805, 10nF, 10%, X7R, 50V	CC0805KRX7R9BB103	SMD 0805	5630001540	91.077	74	180
C19	cap type	GRM31BR73A222KW01L	SMD 1206	5630003400	74.5	26.535	0
C21	Cer. capacitor 100pF, 20%, NP0, 630Vdc, EMI suppr	CC1206JKNPOZBN101	SMD 1206	5630004090	89.5	36.25	90
C26	Cer.capacitor 0603, 220nF, +80/-20%, Y5V, 25V	CC0603ZRY5V8BB224	SMD 0603	5630001550	40.135	28.825	0
C27	Cer.capacitor 0603, 220nF, +80/-20%, Y5V, 25V	CC0603ZRY5V8BB224	SMD 0603	5630001550	43.75	37.969	90
C28	Cer.capacitor 0603, 220nF, +80/-20%, Y5V, 25V	CC0603ZRY5V8BB224	SMD 0603	5630001550	33	35.63	90
C30	Cer. capacitor 100pF, 20%, NP0, 630Vdc, EMI suppr	CC1206JKNPOZBN101	SMD 1206	5630004090	9.75	16	90
C31	cap type	GRM31BR73A222KW01L	SMD 1206	5630003400	10	42.75	0
C33	Cer. capacitor	CC1206KKX7RCBB222	SMD 1206	5630003400	14.163	33.25	180
DD1	SMPS PFC controller	L6562ADTR		5630001500	73.577	47.5	0
DD2	SMPS PFC controller	L6562ADTR		5630001500	39.5	36.18	270
FID1	Fiducial mark				2	80	90
FID2	Fiducial mark				2	2	90
FID3	Fiducial mark				96	80	90
R1	Resistor 1206, 1.5MOhm, 5%	RC1206JR-071M5L	SMD 1206	5630001570	53.75	49	270
R2	Resistor 1206, 1.5MOhm, 5%	RC1206JR-071M5L	SMD 1206	5630001570	58.5	47.5	0
R3	Resistor 0603, 33kOhm, 5%	RC0603JR-0733KL	SMD 0603	5630002720	63.25	45.173	90
R4	Resistor 1206, 390kOhm, 5%	RC1206JR-07390KL	SMD 1206	5630001610	55.5	54	0
R5	Resistor 1206, 390kOhm, 5%	RC1206JR-07390KL	SMD 1206	5630001610	61.6	54	0
R6	Resistor 1206, 680kOhm, 5%	RC1206JR-07680KL	SMD 1206	5630001620	77.334	31.25	90
R7	Resistor 1206, 680kOhm, 5%	RC1206JR-07680KL	SMD 1206	5630001620	75.534	35.95	180
R8	Resistor 1206, 680kOhm, 5%	RC1206JR-07680KL	SMD 1206	5630001620	70.777	37.75	90
R9	Resistor 1206, 2.2Ohm, 5%	RC1206JR-072R2L	SMD 1206	5630001640	72.5	42.4	180
R10	Resistor 0603, 13kOhm, 5%	RC0603JR-0713KL	SMD 0603	5630001630	68.577	52.2	270
R11	Resistor 0603, 910Ohm, 5%	RC0603JR-07910RL	SMD 0603	5630001670	66.077	50	0
R12	Resistor 0805, 22Ohm, 5%	RC0805JR-0722RL	SMD 0805	5630001660	83.75	66.5	270
R13	Resistor 0603, 13kOhm, 5%	RC0603JR-0713KL	SMD 0603	5630001630	76.577	70.208	270
R14	Resistor 0603, 47kOhm, 5%	RC0603JR-0747KL	SMD 0603	5630002510	78.585	46.255	270
R15	Resistor 0805, 22Ohm, 5%	RC0805JR-0722RL	SMD 0805	5630001660	80.377	49	0
R16	Resistor 0603, 910Ohm, 5%	RC0603JR-07910RL	SMD 0603	5630001670	78.577	41.5	90
R17	Resistor 0603, 33kOhm, 5%	RC0603JR-0733KL	SMD 0603	5630002720	86.581	40.25	0
R18	Resistor 1206, 2.2Ohm, 5%	RC1206JR-072R2L	SMD 1206	5630001640	88.75	28.344	0
R19	Resistor 1206, 2.2Ohm, 5%	RC1206JR-072R2L	SMD 1206	5630001640	88.735	25.156	0
R20	Resistor 1206, 2.2Ohm, 5%	RC1206JR-072R2L	SMD 1206	5630001640	88.735	21.906	0
R21	Resistor 1206, 10Ohm, 5%	RC1206JR-0710RL	SMD 1206	5630004080	88.081	31.656	180
R22	Resistor 0805, 22Ohm, 5%	RC0805JR-0722RL	SMD 0805	5630001660	49.75	37.069	90
R23	Resistor 0603, 220kOhm, 5%	RC0603JR-07220KL	SMD 0603	5630001690	44.9	35.28	180
R25	Resistor 0603, 33kOhm, 5%	RC0603JR-0733KL	SMD 0603		45.75	37.969	270
R26	Resistor 0603, 220kOhm, 5%	RC0603JR-07220KL	SMD 0603	5630001690	39.5	41.1	0
R27	Resistor 0603, 100K, 5%		SMD 0603	5630003750	30.75	29.525	180
R28	Resistor 0603, 4.7kOhm, 5%	RC0603JR-074K7L	SMD 0603	5630002490	30.25	31.575	180
R29	Resistor 0603, 47kOhm, 5%	RC0603JR-0747KL	SMD 0603	5630002510	37.595	30.18	90
R30	Resistor 1206, 1.5MOhm, 5%	RC1206JR-071M5L	SMD 1206	5630001570	26.75	39.825	180
R31	Resistor 0603, 910Ohm, 5%	RC0603JR-07910RL	SMD 0603	5630001670	26.75	30.5	270
R32	Resistor 0805, 22Ohm, 5%	RC0805JR-0722RL	SMD 0805	5630001660	41.405	31.077	180
R33	Resistor 1206, 3Ohm, 5%	RC1206JR-073RL	SMD 1206	5630001530	23.75	12	180
R34	Resistor 0603, 910Ohm, 5%	RC0603JR-07910RL	SMD 0603	5630001670	16.25	15	90
R35	Resistor 1206, 1.5MOhm, 5%	RC1206JR-071M5L	SMD 1206	5630001570	24.25	35	270
R36	Resistor 1206	RC1206JR-073RL	SMD 1206	5630001530	23.75	15.25	180
R37	Resistor 1206, 3Ohm, 5%	RC1206JR-073RL	SMD 0603	5630001530	19	15.5	180
R38	Resistor 1206, 3Ohm, 5%	RC1206JR-073RL	SMD 1206	5630001530	25.75	18.5	180
R39	Resistor 1206, 10Ohm, 5%	RC1206JR-0710RL	SMD 1206	5630004080	15.75	11.5	0
R40	Resistor 1206	RC1206JR-073R3L	SMD 1206	5630004150	25.75	21.75	180
R41	Resistor 0805	RC1206JR-0710RL	SMD 0805	5630004080	26.5	24.75	0
VD1	Rectifier diode, 1A, 1000V	S1M		5630001820	59	63.25	180
VD2	Rectifier diode, 1A, 1000V	S1M		5630001820	50.5	63.275	180
VD3	Rectifier diode, 1A, 1000V	S1M		5630001820	59	68.75	180
VD4	Rectifier diode, 1A, 1000V	S1M		5630001820	50.5	68.75	180
VD5	Switching diode, 200 mA, 100V	PMLL4148L		5630001800	84	60.25	270
VD6	Zener diode, 16V	BZV55C16	SOD-80C	5630001830	80.377	65.25	90
VD7	Switching diode, 200 mA, 100V	PMLL4148L		5630001800	84.077	72	270
VD8	Switching diode, 200 mA, 100V	PMLL4148L		5630001800	87.327	72	90
VD9	Switching diode, 200 mA, 100V	PMLL4148L		5630001800	81.077	43	90
VD10	Diode properties	ES3J	SMC/DO-214AB	5630003240	94.25	35.5	90
VD11	Switching diode, 200 mA, 100V	PMLL4148L		5630001800	34	30.025	90
VD12	Switching diode, 200 mA, 100V	PMLL4148L		5630001800	13.25	17	270
VD13	Diode properties	ES3J	SMC/DO-214AB	5630003240	16.25	38	0
VT1	Transistor bipolar NPN	MMBTA05LT1G	SOT-23-3	5630001740	80.077	71	0
VT2	Transistor MOSFET, N-channel, 4.6A, 0.6Ohm, 600V, 12nC	IPD60R600P6	TO-252-3	5630001520	88.077	46.95	270
VT3	Transistor bipolar NPN	MMBTA05LT1G	SOT-23-3	5630001740	29.75	35.18	0
VT4	Transistor MOSFET, N-channel, 4.6A, 0.6Ohm, 600V, 12nC	IPD60R600P6	TO-252-3	5630001520	18.75	22.45	270
